# Blender v2.79 (sub 0) OBJ File: 'vehicles.blend'
# www.blender.org
mtllib aircraftCarrier.mtl
o Cube_Cube.001
v 0.000294 1.330280 1.053692
v -1.694796 2.434995 2.000003
v 0.000294 1.330280 -1.053686
v -0.831505 2.434995 -2.244173
v 12.928660 1.269623 0.669103
v 16.501194 2.434995 1.154086
v 12.928660 1.269623 -0.669097
v 16.445869 2.434995 -2.329982
v -1.694796 1.939482 2.000003
v -0.831505 1.939482 -2.244173
v 16.133015 1.939482 -2.329982
v 16.188339 1.939482 1.154086
v 0.000294 0.555984 -0.669097
v 0.000294 0.555984 0.669103
v 12.339438 0.657181 -0.669097
v 12.339438 0.657181 0.669103
v -0.433574 1.330280 0.000003
v -1.694796 2.434995 0.000003
v 13.361442 1.115956 0.000003
v 16.488941 2.434995 -0.119876
v 16.176086 1.939482 -0.119876
v -1.694796 1.939482 0.000003
v 0.000294 0.000008 0.000003
v 12.153407 0.133252 0.000003
v 7.656515 2.434995 2.000003
v 7.671009 1.939482 2.000003
v -0.831461 1.939482 3.993671
v -0.831461 2.434995 3.993671
v 6.231462 2.434995 3.993671
v 6.245955 1.939482 3.993671
v 1.298701 3.935896 2.089243
v 1.298701 2.251953 2.089243
v 1.298701 3.935896 3.773186
v 1.298701 2.251953 3.773186
v -0.385243 3.935896 2.089243
v -0.385243 2.251953 2.089243
v -0.385243 3.935896 3.773186
v -0.385243 2.251953 3.773186
v 0.886363 5.464480 2.509834
v 1.060316 3.860429 2.335881
v 0.886363 5.464480 3.384331
v 1.060316 3.860429 3.558284
v 0.011866 5.464480 2.509834
v -0.162087 3.860429 2.335881
v 0.011866 5.464480 3.384331
v -0.162087 3.860429 3.558284
v 0.400861 7.348139 3.000340
v 0.400861 5.410567 3.000340
v 0.481385 7.348139 2.904377
v 0.481385 5.410567 2.904377
v 0.400861 7.348139 2.904377
v 0.400861 5.410567 2.904377
v 0.481385 7.348139 3.000340
v 0.481385 5.410567 3.000340
v 0.400861 6.378667 1.983573
v 0.400861 6.378667 3.921144
v 0.481385 6.282703 1.983573
v 0.481385 6.282703 3.921144
v 0.400861 6.282703 1.983573
v 0.400861 6.282703 3.921144
v 0.481385 6.378667 1.983573
v 0.481385 6.378667 3.921144
v 0.400861 6.938346 1.983573
v 0.400861 6.938345 3.921144
v 0.481385 6.842382 1.983573
v 0.481385 6.842382 3.921144
v 0.400861 6.842382 1.983573
v 0.400861 6.842382 3.921144
v 0.481385 6.938346 1.983573
v 0.481385 6.938345 3.921144
v 0.450229 6.647798 2.546770
v 0.450229 6.647797 3.362111
v 0.530752 6.551834 2.546770
v 0.530752 6.551834 3.362111
v 0.450229 6.551834 2.546770
v 0.450229 6.551834 3.362111
v 0.530752 6.647798 2.546770
v 0.530752 6.647797 3.362111
v 0.400861 7.348139 3.000340
v 0.400861 5.410567 3.000340
v 0.481385 7.348139 2.904377
v 0.481385 5.410567 2.904377
v 0.400861 7.348139 2.904377
v 0.400861 5.410567 2.904377
v 0.481385 7.348139 3.000340
v 0.481385 5.410567 3.000340
v 0.400861 6.378667 1.983573
v 0.400861 6.378667 3.921144
v 0.481385 6.282703 1.983573
v 0.481385 6.282703 3.921144
v 0.400861 6.282703 1.983573
v 0.400861 6.282703 3.921144
v 0.481385 6.378667 1.983573
v 0.481385 6.378667 3.921144
v 0.400861 6.938346 1.983573
v 0.400861 6.938345 3.921144
v 0.481385 6.842382 1.983573
v 0.481385 6.842382 3.921144
v 0.400861 6.842382 1.983573
v 0.400861 6.842382 3.921144
v 0.481385 6.938346 1.983573
v 0.481385 6.938345 3.921144
v 0.450229 6.647798 2.546770
v 0.450229 6.647797 3.362111
v 0.530752 6.551834 2.546770
v 0.530752 6.551834 3.362111
v 0.450229 6.551834 2.546770
v 0.450229 6.551834 3.362111
v 0.530752 6.647798 2.546770
v 0.530752 6.647797 3.362111
vn -0.9333 0.0000 -0.3590
vn -0.0050 0.0016 -1.0000
vn 0.8455 -0.5339 -0.0081
vn 0.0969 -0.0292 0.9949
vn 0.0151 -0.2732 -0.9619
vn 0.0000 1.0000 -0.0000
vn 0.0203 -0.8427 0.5380
vn 0.2297 -0.9651 0.1260
vn 0.0022 -0.9131 -0.4077
vn -0.4236 -0.8904 -0.1666
vn 0.0075 -0.7787 0.6274
vn -0.9181 -0.2460 -0.3106
vn 0.5935 -0.6687 0.4480
vn 0.0151 -0.2732 0.9619
vn 0.5935 -0.6687 -0.4480
vn -0.9181 -0.2460 0.3106
vn 0.0075 -0.7787 -0.6274
vn -0.3662 -0.9291 0.0520
vn 0.2154 -0.9726 -0.0875
vn 0.8455 -0.5338 -0.0165
vn -1.0000 0.0000 0.0000
vn 0.0000 0.0000 1.0000
vn 0.8133 0.0238 0.5813
vn 0.0000 -1.0000 0.0000
vn -0.9177 0.0000 0.3974
vn 1.0000 0.0000 0.0000
vn 0.0000 0.0000 -1.0000
vn 0.9942 0.1078 0.0000
vn 0.0000 0.1078 0.9942
vn -0.9942 0.1078 0.0000
vn 0.0000 0.1078 -0.9942
vn 0.7660 0.0000 0.6428
vn -0.7660 0.0000 0.6428
vn 0.7660 0.6428 0.0000
vn -0.7660 0.6428 0.0000
vn -0.7660 -0.0000 -0.6428
vn 0.7660 -0.0000 -0.6428
vn -0.7660 -0.6428 -0.0000
vn 0.7660 -0.6428 -0.0000
usemtl None
s off
f 22//1 18//1 4//1 10//1
f 10//2 4//2 8//2 11//2
f 21//3 20//3 6//3 12//3
f 12//4 6//4 25//4 26//4
f 3//5 7//5 15//5 13//5
f 20//6 18//6 2//6 25//6 6//6
f 5//7 12//7 26//7 9//7 1//7
f 19//8 21//8 12//8 5//8
f 3//9 10//9 11//9 7//9
f 17//10 22//10 10//10 3//10
f 23//11 24//11 16//11 14//11
f 17//12 3//12 13//12 23//12
f 19//13 5//13 16//13 24//13
f 5//14 1//14 14//14 16//14
f 7//15 19//15 24//15 15//15
f 1//16 17//16 23//16 14//16
f 13//17 15//17 24//17 23//17
f 1//18 9//18 22//18 17//18
f 7//19 11//19 21//19 19//19
f 8//6 4//6 18//6 20//6
f 11//20 8//20 20//20 21//20
f 9//21 2//21 18//21 22//21
f 30//22 29//22 28//22 27//22
f 26//23 25//23 29//23 30//23
f 25//6 2//6 28//6 29//6
f 9//24 26//24 30//24 27//24
f 2//25 9//25 27//25 28//25
f 31//26 33//26 34//26 32//26
f 33//22 37//22 38//22 34//22
f 37//21 35//21 36//21 38//21
f 35//27 31//27 32//27 36//27
f 33//6 31//6 35//6 37//6
f 39//28 41//28 42//28 40//28
f 41//29 45//29 46//29 42//29
f 45//30 43//30 44//30 46//30
f 43//31 39//31 40//31 44//31
f 41//6 39//6 43//6 45//6
f 47//32 48//32 50//32 49//32
f 51//33 52//33 54//33 53//33
f 55//34 56//34 58//34 57//34
f 59//35 60//35 62//35 61//35
f 63//34 64//34 66//34 65//34
f 67//35 68//35 70//35 69//35
f 71//34 72//34 74//34 73//34
f 75//35 76//35 78//35 77//35
f 79//36 81//36 82//36 80//36
f 83//37 85//37 86//37 84//37
f 87//38 89//38 90//38 88//38
f 91//39 93//39 94//39 92//39
f 95//38 97//38 98//38 96//38
f 99//39 101//39 102//39 100//39
f 103//38 105//38 106//38 104//38
f 107//39 109//39 110//39 108//39
